100
+ 3 6
+ 1 5
+ 1 7
+ 6 1
+ 5 5
+ 7 0
+ 4 0
+ 1 4
+ 7 3
+ 7 4
+ 2 5
+ 1 3
+ 6 0
+ 5 3
+ 2 1
+ 3 1
+ 6 7
+ 5 5
+ 4 6
+ 2 2
+ 2 2
+ 4 4
+ 1 7
+ 5 4
+ 4 0
+ 1 6
+ 5 7
+ 5 5
+ 5 6
+ 4 0
+ 2 1
+ 3 0
+ 7 6
+ 5 7
+ 6 3
+ 5 2
+ 3 3
+ 1 1
+ 4 5
+ 2 1
+ 2 2
+ 3 2
+ 5 3
+ 6 5
+ 1 0
+ 3 3
+ 3 0
+ 7 3
+ 3 1
+ 2 5
? 32
? 51
+ 6 2
+ 6 5
+ 6 3
- 6 0
+ 7 1
? 17
- 6 7
+ 7 7
+ 1 4
+ 2 5
+ 2 1
+ 3 3
- 5 7
+ 2 5
? 50
- 3 0
? 28
- 3 6
- 3 1
? 38
+ 2 1
? 27
- 2 2
? 54
? 96
- 4 6
- 7 4
+ 7 1
+ 7 0
+ 3 2
- 2 2
? 2
+ 1 7
+ 2 7
+ 7 4
+ 4 6
? 43
+ 7 6
- 1 5
- 1 0
+ 2 5
+ 5 3
? 7
? 57
+ 3 4
+ 5 3
- 3 3
- 7 1
