100
+ 2 5
+ 6 7
+ 1 7
+ 4 0
+ 1 4
+ 3 5
+ 7 2
+ 2 5
+ 5 2
+ 4 7
+ 5 7
+ 4 1
+ 2 3
+ 5 7
+ 4 2
+ 7 4
+ 7 4
+ 5 0
+ 5 5
+ 4 6
+ 4 4
+ 5 6
+ 7 5
+ 3 2
+ 5 4
+ 2 2
+ 5 7
+ 7 5
+ 6 1
+ 5 4
+ 4 5
+ 1 3
+ 3 5
+ 1 5
+ 7 5
+ 7 0
+ 5 3
+ 5 6
+ 2 1
+ 5 3
+ 5 4
+ 2 5
+ 4 3
+ 4 5
+ 1 6
+ 6 1
+ 1 3
+ 5 7
+ 3 3
+ 1 4
+ 5 5
+ 6 4
- 7 4
+ 1 7
? 98
- 3 5
? 34
- 6 1
? 69
- 7 5
- 7 2
- 5 4
+ 7 4
- 7 4
+ 2 4
+ 1 6
+ 5 1
? 38
+ 2 1
- 7 5
? 47
- 2 2
+ 4 0
+ 1 6
+ 4 7
- 3 3
+ 5 3
+ 6 3
? 39
+ 6 6
+ 3 0
- 6 3
- 1 6
- 4 4
? 87
+ 3 5
+ 6 4
? 41
? 99
? 30
? 95
? 40
+ 6 7
+ 6 2
- 5 3
+ 6 5
? 94
? 58
+ 7 1
+ 4 2
